UVM_Framework/UVMF_2022.3/i3c_uvmf/no_veloce_ready/project_benches/i3c/sim/transcript
# vsim -c -sv_seed random "+UVM_TESTNAME=test_top" -permit_unmatched_virtual_intf "+notimingchecks" -suppress 8887 -solvefaildebug -solvefailtestcase -uvmcontrol=none -printsimstats -do " coverage save -onexit test_top.ucdb; set IterationLimit 140000; set NoQuitOnFinish 1;   run -all; quit -f;" optimized_batch_top_tb 
# Start time: 11:29:49 on Jan 23,2023
# //  Questa Sim
# //  Version 10.6c linux Jul 25 2017
# //
# //  Copyright 1991-2017 Mentor Graphics Corporation
# //  All Rights Reserved.
# //
# //  QuestaSim and its associated documentation contain trade
# //  secrets and commercial or financial information that are the property of
# //  Mentor Graphics Corporation and are privileged, confidential,
# //  and exempt from disclosure under the Freedom of Information Act,
# //  5 U.S.C. Section 552. Furthermore, this information
# //  is prohibited from disclosure under the Trade Secrets Act,
# //  18 U.S.C. Section 1905.
# //
# Loading sv_std.std
# Loading work.i3c_m_driver_bfm(fast)
# Loading work.i3c_m_monitor_bfm(fast)
# Loading work.i3c_global_pkg(fast)
# Loading work.uvmf_base_pkg_hdl(fast)
# Loading work.i3c_m_pkg_hdl(fast)
# Loading mtiUvm.uvm_pkg
# Loading work.uvmf_base_pkg(fast)
# Loading work.i3c_m_pkg(fast)
# Loading work.env_env_pkg(fast)
# Loading work.i3c_parameters_pkg(fast)
# Loading work.i3c_sequences_pkg(fast)
# Loading work.i3c_tests_pkg(fast)
# Loading work.hvl_top(fast)
# Loading work.i3c_m_if_sv_unit(fast)
# Loading work.hdl_top(fast)
# Loading work.i3c_m_monitor_bfm_sv_unit(fast)
# Loading work.i3c_m_monitor_bfm(fast)
# Loading work.i3c_m_driver_bfm_sv_unit(fast)
# Loading work.i3c_m_driver_bfm(fast)
# Loading mtiUvm.questa_uvm_pkg(fast)
# Loading std.standard
# Loading std.textio(body)
# Loading ieee.std_logic_1164(body)
# Loading work.vhdl_dut(rtl)#1
# Loading /tools/mentor/questasim_10.6c/questasim/uvm-1.1d/linux/uvm_dpi.so
# Sv_Seed = 543447860
#  coverage save -onexit test_top.ucdb
#  set IterationLimit 140000
# 140000
#  set NoQuitOnFinish 1
# 1
#    run -all
# ----------------------------------------------------------------
# UVM-1.1d
# (C) 2007-2013 Mentor Graphics Corporation
# (C) 2007-2013 Cadence Design Systems, Inc.
# (C) 2006-2013 Synopsys, Inc.
# (C) 2011-2013 Cypress Semiconductor Corp.
# ----------------------------------------------------------------
# 
#   ***********       IMPORTANT RELEASE NOTES         ************
# 
#   You are using a version of the UVM library that has been compiled
#   with `UVM_NO_DEPRECATED undefined.
#   See http://www.eda.org/svdb/view.php?id=3313 for more details.
# 
#   You are using a version of the UVM library that has been compiled
#   with `UVM_OBJECT_MUST_HAVE_CONSTRUCTOR undefined.
#   See http://www.eda.org/svdb/view.php?id=3770 for more details.
# 
#       (Specify +UVM_NO_RELNOTES to turn off this notice)
# 
# ----------------------------------------------------------------
# //  UVM Framework 
# //  Version 2022.3
# //  (C) 2013-2022 Siemens Corporation
# //  Digital Industries Software
# //  Siemens EDA
# //  All Rights Reserved.
# ----------------------------------------------------------------
# 
# 
# UVM_INFO verilog_src/questa_uvm_pkg-1.2/src/questa_uvm_pkg.sv(215) @ 0: reporter [Questa UVM] QUESTA_UVM-1.2.3
# UVM_INFO verilog_src/questa_uvm_pkg-1.2/src/questa_uvm_pkg.sv(217) @ 0: reporter [Questa UVM]  questa_uvm::init()
# UVM_INFO @ 0.000ns: reporter [RNTST] Running test test_top...
# UVM_WARNING @ 0.000ns: reporter [COVERAGE_MODEL_REVIEW] A covergroup has been constructed which may need review because of either generation or re-generation with merging.  Please note that configuration variables added as a result of re-generation and merging are not automatically added to the covergroup.  Remove this warning after the covergroup has been reviewed.
# UVM_INFO @ 59.000ns: uvm_test_top.environment.m_agent.sequencer@@m_agent_random_seq [SEQ] Response:read_write:0x0 scl:0x0 sda:0x0 wr_data:'{} rd_data:'{} slave_address:0x10 register_address:0x51 size:0xf1cc0246 ack:0x0 index:0x0 raddr:0x9d slave_add_ack:0x1 reg_add_ack:0x1 wr_data_ack:'{} 
# UVM_INFO @ 99.000ns: uvm_test_top.environment.m_agent.sequencer@@m_agent_random_seq [SEQ] Response:read_write:0x1 scl:0x0 sda:0x1 wr_data:'{} rd_data:'{} slave_address:0x3b register_address:0xd1 size:0xbb215abf ack:0x0 index:0x5 raddr:0xe8 slave_add_ack:0x1 reg_add_ack:0x1 wr_data_ack:'{} 
# UVM_INFO @ 139.000ns: uvm_test_top.environment.m_agent.sequencer@@m_agent_random_seq [SEQ] Response:read_write:0x1 scl:0x0 sda:0x1 wr_data:'{} rd_data:'{} slave_address:0x5a register_address:0xc3 size:0xac96083a ack:0x0 index:0xb raddr:0x7f slave_add_ack:0x1 reg_add_ack:0x1 wr_data_ack:'{} 
# UVM_INFO @ 179.000ns: uvm_test_top.environment.m_agent.sequencer@@m_agent_random_seq [SEQ] Response:read_write:0x0 scl:0x0 sda:0x0 wr_data:'{} rd_data:'{} slave_address:0x0f register_address:0x55 size:0xf23e386c ack:0x0 index:0xe raddr:0x61 slave_add_ack:0x1 reg_add_ack:0x1 wr_data_ack:'{} 
# UVM_INFO @ 219.000ns: uvm_test_top.environment.m_agent.sequencer@@m_agent_random_seq [SEQ] Response:read_write:0x1 scl:0x0 sda:0x1 wr_data:'{} rd_data:'{} slave_address:0x7c register_address:0x5f size:0x84b41770 ack:0x0 index:0x6 raddr:0x88 slave_add_ack:0x1 reg_add_ack:0x1 wr_data_ack:'{} 
# UVM_INFO @ 259.000ns: uvm_test_top.environment.m_agent.sequencer@@m_agent_random_seq [SEQ] Response:read_write:0x0 scl:0x0 sda:0x0 wr_data:'{} rd_data:'{} slave_address:0x45 register_address:0x9b size:0xad2c3cce ack:0x0 index:0x9 raddr:0x0d slave_add_ack:0x1 reg_add_ack:0x1 wr_data_ack:'{} 
# UVM_INFO @ 299.000ns: uvm_test_top.environment.m_agent.sequencer@@m_agent_random_seq [SEQ] Response:read_write:0x1 scl:0x0 sda:0x0 wr_data:'{} rd_data:'{} slave_address:0x6a register_address:0x2d size:0x8282d089 ack:0x0 index:0xa raddr:0xc2 slave_add_ack:0x1 reg_add_ack:0x1 wr_data_ack:'{} 
# UVM_INFO @ 339.000ns: uvm_test_top.environment.m_agent.sequencer@@m_agent_random_seq [SEQ] Response:read_write:0x1 scl:0x0 sda:0x1 wr_data:'{} rd_data:'{} slave_address:0x1c register_address:0x49 size:0x49ac84f1 ack:0x0 index:0xc raddr:0xc4 slave_add_ack:0x1 reg_add_ack:0x1 wr_data_ack:'{} 
# UVM_INFO @ 379.000ns: uvm_test_top.environment.m_agent.sequencer@@m_agent_random_seq [SEQ] Response:read_write:0x0 scl:0x0 sda:0x0 wr_data:'{} rd_data:'{} slave_address:0x04 register_address:0x13 size:0x90218bb1 ack:0x0 index:0x3 raddr:0x2e slave_add_ack:0x1 reg_add_ack:0x1 wr_data_ack:'{} 
# UVM_INFO @ 419.000ns: uvm_test_top.environment.m_agent.sequencer@@m_agent_random_seq [SEQ] Response:read_write:0x0 scl:0x0 sda:0x1 wr_data:'{} rd_data:'{} slave_address:0x13 register_address:0xf8 size:0x21dda9b4 ack:0x0 index:0x1 raddr:0x13 slave_add_ack:0x1 reg_add_ack:0x1 wr_data_ack:'{} 
# UVM_INFO @ 459.000ns: uvm_test_top.environment.m_agent.sequencer@@m_agent_random_seq [SEQ] Response:read_write:0x0 scl:0x0 sda:0x1 wr_data:'{} rd_data:'{} slave_address:0x37 register_address:0xbb size:0x7d427873 ack:0x0 index:0x6 raddr:0xcf slave_add_ack:0x1 reg_add_ack:0x1 wr_data_ack:'{} 
# UVM_INFO @ 499.000ns: uvm_test_top.environment.m_agent.sequencer@@m_agent_random_seq [SEQ] Response:read_write:0x0 scl:0x0 sda:0x1 wr_data:'{} rd_data:'{} slave_address:0x12 register_address:0xf5 size:0xe365e574 ack:0x0 index:0xc raddr:0x10 slave_add_ack:0x1 reg_add_ack:0x1 wr_data_ack:'{} 
# UVM_INFO @ 539.000ns: uvm_test_top.environment.m_agent.sequencer@@m_agent_random_seq [SEQ] Response:read_write:0x1 scl:0x0 sda:0x1 wr_data:'{} rd_data:'{} slave_address:0x39 register_address:0x63 size:0x5b2ef6eb ack:0x0 index:0xe raddr:0xfb slave_add_ack:0x1 reg_add_ack:0x1 wr_data_ack:'{} 
# UVM_INFO @ 579.000ns: uvm_test_top.environment.m_agent.sequencer@@m_agent_random_seq [SEQ] Response:read_write:0x0 scl:0x0 sda:0x1 wr_data:'{} rd_data:'{} slave_address:0x53 register_address:0xcf size:0xcbeb1c40 ack:0x0 index:0x9 raddr:0xc4 slave_add_ack:0x1 reg_add_ack:0x1 wr_data_ack:'{} 
# UVM_INFO @ 619.000ns: uvm_test_top.environment.m_agent.sequencer@@m_agent_random_seq [SEQ] Response:read_write:0x1 scl:0x0 sda:0x0 wr_data:'{} rd_data:'{} slave_address:0x55 register_address:0x7d size:0x6de691bd ack:0x0 index:0x0 raddr:0x8e slave_add_ack:0x1 reg_add_ack:0x1 wr_data_ack:'{} 
# UVM_INFO @ 659.000ns: uvm_test_top.environment.m_agent.sequencer@@m_agent_random_seq [SEQ] Response:read_write:0x0 scl:0x0 sda:0x0 wr_data:'{} rd_data:'{} slave_address:0x1f register_address:0x08 size:0xcb1e83b5 ack:0x0 index:0x9 raddr:0x6c slave_add_ack:0x1 reg_add_ack:0x1 wr_data_ack:'{} 
# UVM_INFO @ 699.000ns: uvm_test_top.environment.m_agent.sequencer@@m_agent_random_seq [SEQ] Response:read_write:0x0 scl:0x0 sda:0x0 wr_data:'{} rd_data:'{} slave_address:0x01 register_address:0xfa size:0x3dfaec5b ack:0x0 index:0x7 raddr:0x90 slave_add_ack:0x1 reg_add_ack:0x1 wr_data_ack:'{} 
# UVM_INFO @ 739.000ns: uvm_test_top.environment.m_agent.sequencer@@m_agent_random_seq [SEQ] Response:read_write:0x1 scl:0x0 sda:0x1 wr_data:'{} rd_data:'{} slave_address:0x1c register_address:0x0f size:0x015b0a41 ack:0x0 index:0xb raddr:0x7e slave_add_ack:0x1 reg_add_ack:0x1 wr_data_ack:'{} 
# UVM_INFO @ 779.000ns: uvm_test_top.environment.m_agent.sequencer@@m_agent_random_seq [SEQ] Response:read_write:0x0 scl:0x0 sda:0x1 wr_data:'{} rd_data:'{} slave_address:0x4e register_address:0xd3 size:0xfc7689f5 ack:0x0 index:0x2 raddr:0x0e slave_add_ack:0x1 reg_add_ack:0x1 wr_data_ack:'{} 
# UVM_INFO @ 819.000ns: uvm_test_top.environment.m_agent.sequencer@@m_agent_random_seq [SEQ] Response:read_write:0x1 scl:0x0 sda:0x0 wr_data:'{} rd_data:'{} slave_address:0x26 register_address:0x06 size:0xbf958552 ack:0x0 index:0x5 raddr:0x13 slave_add_ack:0x1 reg_add_ack:0x1 wr_data_ack:'{} 
# UVM_INFO @ 859.000ns: uvm_test_top.environment.m_agent.sequencer@@m_agent_random_seq [SEQ] Response:read_write:0x1 scl:0x0 sda:0x1 wr_data:'{} rd_data:'{} slave_address:0x7b register_address:0xda size:0xf3ec2e90 ack:0x0 index:0x5 raddr:0x9a slave_add_ack:0x1 reg_add_ack:0x1 wr_data_ack:'{} 
# UVM_INFO @ 899.000ns: uvm_test_top.environment.m_agent.sequencer@@m_agent_random_seq [SEQ] Response:read_write:0x1 scl:0x0 sda:0x0 wr_data:'{} rd_data:'{} slave_address:0x53 register_address:0xcb size:0x880ba047 ack:0x0 index:0x1 raddr:0xaf slave_add_ack:0x1 reg_add_ack:0x1 wr_data_ack:'{} 
# UVM_INFO @ 939.000ns: uvm_test_top.environment.m_agent.sequencer@@m_agent_random_seq [SEQ] Response:read_write:0x0 scl:0x0 sda:0x1 wr_data:'{} rd_data:'{} slave_address:0x40 register_address:0x1b size:0xaa7dc359 ack:0x0 index:0x9 raddr:0x33 slave_add_ack:0x1 reg_add_ack:0x1 wr_data_ack:'{} 
# UVM_INFO @ 979.000ns: uvm_test_top.environment.m_agent.sequencer@@m_agent_random_seq [SEQ] Response:read_write:0x0 scl:0x0 sda:0x1 wr_data:'{} rd_data:'{} slave_address:0x2a register_address:0x61 size:0xb75b0dd1 ack:0x0 index:0x1 raddr:0xbb slave_add_ack:0x1 reg_add_ack:0x1 wr_data_ack:'{} 
# UVM_INFO @ 1019.000ns: uvm_test_top.environment.m_agent.sequencer@@m_agent_random_seq [SEQ] Response:read_write:0x1 scl:0x0 sda:0x1 wr_data:'{} rd_data:'{} slave_address:0x21 register_address:0x71 size:0xc7b0851f ack:0x0 index:0xf raddr:0xd2 slave_add_ack:0x1 reg_add_ack:0x1 wr_data_ack:'{} 
# UVM_INFO @ 1059.000ns: uvm_test_top.environment.m_agent.sequencer@@m_agent_rand_seq [SEQ] Response:read_write:0x0 scl:0x0 sda:0x0 wr_data:'{} rd_data:'{} slave_address:0x6a register_address:0x2c size:0x37496e0d ack:0x0 index:0xa raddr:0xc5 slave_add_ack:0x1 reg_add_ack:0x1 wr_data_ack:'{} 
# UVM_INFO @ 1099.000ns: uvm_test_top.environment.m_agent.sequencer@@m_agent_rand_seq [SEQ] Response:read_write:0x1 scl:0x0 sda:0x1 wr_data:'{} rd_data:'{} slave_address:0x2a register_address:0x8e size:0x2add6961 ack:0x0 index:0x7 raddr:0x7c slave_add_ack:0x1 reg_add_ack:0x1 wr_data_ack:'{} 
# UVM_INFO @ 1139.000ns: uvm_test_top.environment.m_agent.sequencer@@m_agent_rand_seq [SEQ] Response:read_write:0x1 scl:0x0 sda:0x0 wr_data:'{} rd_data:'{} slave_address:0x22 register_address:0xce size:0x84212f57 ack:0x0 index:0xb raddr:0x6f slave_add_ack:0x1 reg_add_ack:0x1 wr_data_ack:'{} 
# UVM_INFO @ 1179.000ns: uvm_test_top.environment.m_agent.sequencer@@m_agent_rand_seq [SEQ] Response:read_write:0x0 scl:0x0 sda:0x1 wr_data:'{} rd_data:'{} slave_address:0x68 register_address:0x9f size:0xae7d52b6 ack:0x0 index:0x6 raddr:0x63 slave_add_ack:0x1 reg_add_ack:0x1 wr_data_ack:'{} 
# UVM_INFO @ 1219.000ns: uvm_test_top.environment.m_agent.sequencer@@m_agent_rand_seq [SEQ] Response:read_write:0x0 scl:0x0 sda:0x0 wr_data:'{} rd_data:'{} slave_address:0x29 register_address:0x35 size:0x8dd846be ack:0x0 index:0xe raddr:0x9c slave_add_ack:0x1 reg_add_ack:0x1 wr_data_ack:'{} 
# UVM_INFO @ 1259.000ns: uvm_test_top.environment.m_agent.sequencer@@m_agent_rand_seq [SEQ] Response:read_write:0x1 scl:0x0 sda:0x1 wr_data:'{} rd_data:'{} slave_address:0x6a register_address:0x20 size:0xe2a74031 ack:0x0 index:0x1 raddr:0xcf slave_add_ack:0x1 reg_add_ack:0x1 wr_data_ack:'{} 
# UVM_INFO @ 1299.000ns: uvm_test_top.environment.m_agent.sequencer@@m_agent_rand_seq [SEQ] Response:read_write:0x1 scl:0x0 sda:0x1 wr_data:'{} rd_data:'{} slave_address:0x48 register_address:0x6b size:0x696c7096 ack:0x0 index:0x8 raddr:0xb8 slave_add_ack:0x1 reg_add_ack:0x1 wr_data_ack:'{} 
# UVM_INFO @ 1339.000ns: uvm_test_top.environment.m_agent.sequencer@@m_agent_rand_seq [SEQ] Response:read_write:0x0 scl:0x0 sda:0x1 wr_data:'{} rd_data:'{} slave_address:0x15 register_address:0xb1 size:0xacf7132c ack:0x0 index:0x8 raddr:0x52 slave_add_ack:0x1 reg_add_ack:0x1 wr_data_ack:'{} 
# UVM_INFO @ 1379.000ns: uvm_test_top.environment.m_agent.sequencer@@m_agent_rand_seq [SEQ] Response:read_write:0x1 scl:0x0 sda:0x0 wr_data:'{} rd_data:'{} slave_address:0x54 register_address:0xf7 size:0xce06ca57 ack:0x0 index:0x0 raddr:0xe8 slave_add_ack:0x1 reg_add_ack:0x1 wr_data_ack:'{} 
# UVM_INFO @ 1419.000ns: uvm_test_top.environment.m_agent.sequencer@@m_agent_rand_seq [SEQ] Response:read_write:0x0 scl:0x0 sda:0x1 wr_data:'{} rd_data:'{} slave_address:0x32 register_address:0xa5 size:0xce4a7a18 ack:0x0 index:0x9 raddr:0x93 slave_add_ack:0x1 reg_add_ack:0x1 wr_data_ack:'{} 
# UVM_INFO @ 1459.000ns: uvm_test_top.environment.m_agent.sequencer@@m_agent_rand_seq [SEQ] Response:read_write:0x1 scl:0x0 sda:0x1 wr_data:'{} rd_data:'{} slave_address:0x75 register_address:0x6b size:0xb6b82b39 ack:0x0 index:0x7 raddr:0x75 slave_add_ack:0x1 reg_add_ack:0x1 wr_data_ack:'{} 
# UVM_INFO @ 1499.000ns: uvm_test_top.environment.m_agent.sequencer@@m_agent_rand_seq [SEQ] Response:read_write:0x0 scl:0x0 sda:0x0 wr_data:'{} rd_data:'{} slave_address:0x09 register_address:0xdf size:0x6b402f53 ack:0x0 index:0x9 raddr:0x12 slave_add_ack:0x1 reg_add_ack:0x1 wr_data_ack:'{} 
# UVM_INFO @ 1539.000ns: uvm_test_top.environment.m_agent.sequencer@@m_agent_rand_seq [SEQ] Response:read_write:0x1 scl:0x0 sda:0x0 wr_data:'{} rd_data:'{} slave_address:0x5b register_address:0xc1 size:0x9f8ef1d9 ack:0x0 index:0xe raddr:0x47 slave_add_ack:0x1 reg_add_ack:0x1 wr_data_ack:'{} 
# UVM_INFO @ 1579.000ns: uvm_test_top.environment.m_agent.sequencer@@m_agent_rand_seq [SEQ] Response:read_write:0x0 scl:0x0 sda:0x1 wr_data:'{} rd_data:'{} slave_address:0x32 register_address:0xba size:0xbe997542 ack:0x0 index:0xd raddr:0xd6 slave_add_ack:0x1 reg_add_ack:0x1 wr_data_ack:'{} 
# UVM_INFO @ 1619.000ns: uvm_test_top.environment.m_agent.sequencer@@m_agent_rand_seq [SEQ] Response:read_write:0x0 scl:0x0 sda:0x1 wr_data:'{} rd_data:'{} slave_address:0x6c register_address:0x6b size:0x4f8157c9 ack:0x0 index:0x5 raddr:0x28 slave_add_ack:0x1 reg_add_ack:0x1 wr_data_ack:'{} 
# UVM_INFO @ 1659.000ns: uvm_test_top.environment.m_agent.sequencer@@m_agent_rand_seq [SEQ] Response:read_write:0x0 scl:0x0 sda:0x1 wr_data:'{} rd_data:'{} slave_address:0x19 register_address:0x8b size:0x3c81857d ack:0x0 index:0xd raddr:0xdf slave_add_ack:0x1 reg_add_ack:0x1 wr_data_ack:'{} 
# UVM_INFO @ 1699.000ns: uvm_test_top.environment.m_agent.sequencer@@m_agent_rand_seq [SEQ] Response:read_write:0x1 scl:0x0 sda:0x0 wr_data:'{} rd_data:'{} slave_address:0x0c register_address:0xc6 size:0x7571f178 ack:0x0 index:0xf raddr:0xd3 slave_add_ack:0x1 reg_add_ack:0x1 wr_data_ack:'{} 
# UVM_INFO @ 1739.000ns: uvm_test_top.environment.m_agent.sequencer@@m_agent_rand_seq [SEQ] Response:read_write:0x0 scl:0x0 sda:0x1 wr_data:'{} rd_data:'{} slave_address:0x51 register_address:0x7a size:0x3126f7b9 ack:0x0 index:0x6 raddr:0xcc slave_add_ack:0x1 reg_add_ack:0x1 wr_data_ack:'{} 
# UVM_INFO @ 1779.000ns: uvm_test_top.environment.m_agent.sequencer@@m_agent_rand_seq [SEQ] Response:read_write:0x0 scl:0x0 sda:0x0 wr_data:'{} rd_data:'{} slave_address:0x3c register_address:0x6c size:0xa9925880 ack:0x0 index:0x8 raddr:0x39 slave_add_ack:0x1 reg_add_ack:0x1 wr_data_ack:'{} 
# UVM_INFO @ 1819.000ns: uvm_test_top.environment.m_agent.sequencer@@m_agent_rand_seq [SEQ] Response:read_write:0x0 scl:0x0 sda:0x1 wr_data:'{} rd_data:'{} slave_address:0x26 register_address:0xe3 size:0x33a38c30 ack:0x0 index:0x9 raddr:0xda slave_add_ack:0x1 reg_add_ack:0x1 wr_data_ack:'{} 
# UVM_INFO @ 1859.000ns: uvm_test_top.environment.m_agent.sequencer@@m_agent_rand_seq [SEQ] Response:read_write:0x1 scl:0x0 sda:0x1 wr_data:'{} rd_data:'{} slave_address:0x73 register_address:0xe5 size:0x315faf96 ack:0x0 index:0x4 raddr:0x89 slave_add_ack:0x1 reg_add_ack:0x1 wr_data_ack:'{} 
# UVM_INFO @ 1899.000ns: uvm_test_top.environment.m_agent.sequencer@@m_agent_rand_seq [SEQ] Response:read_write:0x0 scl:0x0 sda:0x0 wr_data:'{} rd_data:'{} slave_address:0x07 register_address:0xa7 size:0xbc308bac ack:0x0 index:0x8 raddr:0xb9 slave_add_ack:0x1 reg_add_ack:0x1 wr_data_ack:'{} 
# UVM_INFO @ 1939.000ns: uvm_test_top.environment.m_agent.sequencer@@m_agent_rand_seq [SEQ] Response:read_write:0x1 scl:0x0 sda:0x1 wr_data:'{} rd_data:'{} slave_address:0x19 register_address:0x19 size:0x07aeaa4c ack:0x0 index:0xd raddr:0x6d slave_add_ack:0x1 reg_add_ack:0x1 wr_data_ack:'{} 
# UVM_INFO @ 1979.000ns: uvm_test_top.environment.m_agent.sequencer@@m_agent_rand_seq [SEQ] Response:read_write:0x0 scl:0x0 sda:0x0 wr_data:'{} rd_data:'{} slave_address:0x6c register_address:0xfa size:0x0917bcab ack:0x0 index:0x1 raddr:0xb4 slave_add_ack:0x1 reg_add_ack:0x1 wr_data_ack:'{} 
# UVM_INFO @ 2019.000ns: uvm_test_top.environment.m_agent.sequencer@@m_agent_rand_seq [SEQ] Response:read_write:0x1 scl:0x0 sda:0x1 wr_data:'{} rd_data:'{} slave_address:0x48 register_address:0xbc size:0x32927d82 ack:0x0 index:0x9 raddr:0x05 slave_add_ack:0x1 reg_add_ack:0x1 wr_data_ack:'{} 
# UVM_INFO verilog_src/uvm-1.1d/src/base/uvm_objection.svh(1268) @ 6019.000ns: reporter [TEST_DONE] 'run' phase is ready to proceed to the 'extract' phase
# 
# --- UVM Report Summary ---
# 
# ** Report counts by severity
# UVM_INFO :   54
# UVM_WARNING :    1
# UVM_ERROR :    0
# UVM_FATAL :    0
# ** Report counts by id
# [COVERAGE_MODEL_REVIEW]     1
# [Questa UVM]     2
# [RNTST]     1
# [SEQ]    50
# [TEST_DONE]     1
# ** Note: $finish    : /tools/mentor/questasim_10.6c/questasim/linux/../verilog_src/uvm-1.1d/src/base/uvm_root.svh(430)
#    Time: 6019 ns  Iteration: 60  Instance: /hvl_top
# 1
# Break in Task uvm_pkg/uvm_root::run_test at /tools/mentor/questasim_10.6c/questasim/linux/../verilog_src/uvm-1.1d/src/base/uvm_root.svh line 430
# Stopped at /tools/mentor/questasim_10.6c/questasim/linux/../verilog_src/uvm-1.1d/src/base/uvm_root.svh line 430
#  quit -f
# Saving coverage database on exit...
# Memory Statistics                         
#     mem: size after elab (VSZ)                  81.85 Mb
#     mem: size during sim (VSZ)                  81.85 Mb
# Elaboration Time                          
#    elab: wall time                               2.41 s
#    elab: cpu time                                0.93 s
# Simulation Time                           
#     sim: wall time                               0.08 s
#     sim: cpu time                                0.04 s
# Coverage Save Time                        
#    save: wall time                               0.05 s
#    save: cpu time                                0.04 s
# Total Time                                
#   total: wall time                               2.54 s
#   total: cpu time                                1.01 s
# 
# End time: 11:29:52 on Jan 23,2023, Elapsed time: 0:00:03
# Errors: 0, Warnings: 0
