sim/questa_sim/i3c_avip.vcd
$date
	Wed Nov 22 17:01:28 2023
$end
$version
	QuestaSim Version 10.6c
$end
$timescale
	1ns
$end

$scope module uvm_root $end
$upscope $end

$scope module hvl_top $end
$upscope $end

$scope module hdl_top $end
$var reg 1 ! clk $end
$var reg 1 " rst $end
$var wire 1 # I3C_SCL $end
$var wire 1 $ I3C_SDA $end

$scope module i3c_master_agent_bfm_h $end
$upscope $end

$scope module i3c_slave_agent_bfm_h $end
$var parameter 32 % SLAVE_ID $end
$upscope $end
$upscope $end

$scope begin i3c_globals_pkg $end
$var parameter 32 & NO_OF_MASTERS $end
$var parameter 32 ' NO_OF_SLAVES $end
$var parameter 32 ( NO_OF_REG $end
$var parameter 32 ) DATA_WIDTH $end
$var parameter 32 * SLAVE_ADDRESS_WIDTH $end
$var parameter 32 + REGISTER_ADDRESS_WIDTH $end
$var parameter 32 , MAXIMUM_BITS $end
$var parameter 32 - MAXIMUM_BYTES $end
$var parameter 7 . SLAVE0_ADDRESS $end
$var parameter 7 / SLAVE1_ADDRESS $end
$var parameter 7 0 SLAVE2_ADDRESS $end
$var parameter 7 1 SLAVE3_ADDRESS $end
$var parameter 1 2 TRISTATE_BUF_ON $end
$var parameter 1 3 TRISTATE_BUF_OFF $end
$var parameter 32 4 BUS_IDLE_TIME $end
$var parameter 32 5 BUS_FREE_TIME $end
$upscope $end

$scope begin uvm_pkg $end
$var parameter 32 6 UVM_HDL_MAX_WIDTH $end
$var parameter 32 7 UVM_STREAMBITS $end
$var parameter 32 8 UVM_RADIX $end
$var parameter 32 9 UVM_MACRO_NUMFLAGS $end
$var parameter 32 : UVM_DEFAULT $end
$var parameter 32 ; UVM_ALL_ON $end
$var parameter 32 < UVM_FLAGS_ON $end
$var parameter 32 = UVM_FLAGS_OFF $end
$var parameter 32 > UVM_COPY $end
$var parameter 32 ? UVM_NOCOPY $end
$var parameter 32 @ UVM_COMPARE $end
$var parameter 32 A UVM_NOCOMPARE $end
$var parameter 32 B UVM_PRINT $end
$var parameter 32 C UVM_NOPRINT $end
$var parameter 32 D UVM_RECORD $end
$var parameter 32 E UVM_NORECORD $end
$var parameter 32 F UVM_PACK $end
$var parameter 32 G UVM_NOPACK $end
$var parameter 32 H UVM_PHYSICAL $end
$var parameter 32 I UVM_ABSTRACT $end
$var parameter 32 J UVM_READONLY $end
$var parameter 32 K UVM_NODEFPRINT $end
$var parameter 32 L UVM_MACRO_EXTRAS $end
$var parameter 32 M UVM_FLAGS $end
$var parameter 32 N UVM_UNPACK $end
$var parameter 32 O UVM_CHECK_FIELDS $end
$var parameter 32 P UVM_END_DATA_EXTRA $end
$var parameter 32 Q UVM_START_FUNCS $end
$var parameter 32 R UVM_SET $end
$var parameter 32 S UVM_SETINT $end
$var parameter 32 T UVM_SETOBJ $end
$var parameter 32 U UVM_SETSTR $end
$var parameter 32 V UVM_END_FUNCS $end
$var parameter 32 W UVM_STR_CRC_POLYNOMIAL $end
$var parameter 32 X UVM_STDOUT $end
$var parameter 32 Y UVM_LINE_WIDTH $end
$var parameter 32 Z UVM_NUM_LINES $end
$var parameter 32 [ UVM_SMALL_STRING $end
$var parameter 32 \ UVM_LARGE_STRING $end
$var reg 1 ] uvm_start_uvm_declarations $end
$var integer 32 ^ uvm_global_random_seed $end
$var integer 32 _ UVM_UNBOUNDED_CONNECTIONS $end

$scope function uvm_hdl_check_path $end
$var integer 32 ` uvm_hdl_check_path $end
$upscope $end

$scope function uvm_hdl_deposit $end
$var integer 32 a uvm_hdl_deposit $end
$var reg 1024 b value [1023:0] $end
$upscope $end

$scope function uvm_hdl_force $end
$var integer 32 c uvm_hdl_force $end
$var reg 1024 d value [1023:0] $end
$upscope $end

$scope task uvm_hdl_force_time $end
$var reg 1024 e value [1023:0] $end
$var time 64 f force_time $end
$upscope $end

$scope function uvm_hdl_release_and_read $end
$var integer 32 g uvm_hdl_release_and_read $end
$var reg 1024 h value [1023:0] $end
$upscope $end

$scope function uvm_hdl_release $end
$var integer 32 i uvm_hdl_release $end
$upscope $end

$scope function uvm_hdl_read $end
$var integer 32 j uvm_hdl_read $end
$var reg 1024 k value [1023:0] $end
$upscope $end

$scope function uvm_dpi_get_next_arg_c $end
$upscope $end

$scope function uvm_dpi_get_tool_name_c $end
$upscope $end

$scope function uvm_dpi_get_tool_version_c $end
$upscope $end

$scope function uvm_dpi_get_next_arg $end
$upscope $end

$scope function uvm_dpi_get_tool_name $end
$upscope $end

$scope function uvm_dpi_get_tool_version $end
$upscope $end

$scope function uvm_dpi_regcomp $end
$upscope $end

$scope function uvm_dpi_regexec $end
$var integer 32 l uvm_dpi_regexec $end
$upscope $end

$scope function uvm_dpi_regfree $end
$upscope $end

$scope function uvm_re_match $end
$var integer 32 m uvm_re_match $end
$upscope $end

$scope function uvm_dump_re_cache $end
$upscope $end

$scope function uvm_glob_to_re $end
$upscope $end

$scope function uvm_revision_string $end
$upscope $end

$scope function uvm_radix_to_string $end
$var integer 32 n radix $end
$upscope $end

$scope function uvm_instance_scope $end
$var reg 8 o c [7:0] $end
$var integer 32 p pos $end
$upscope $end

$scope function uvm_oneway_hash $end
$var integer 32 q uvm_oneway_hash $end
$var integer 32 r seed $end
$var reg 1 s msb $end
$var reg 8 t current_byte [7:0] $end
$var reg 32 u crc1 [31:0] $end
$upscope $end

$scope function uvm_create_random_seed $end
$var integer 32 v uvm_create_random_seed $end
$upscope $end

$scope function uvm_object_value_str $end
$upscope $end

$scope function uvm_leaf_scope $end
$var reg 8 w scope_separator [7:0] $end
$var reg 8 x bracket_match [7:0] $end
$var integer 32 y pos $end
$var integer 32 z bmatches $end
$upscope $end

$scope function uvm_vector_to_string $end
$var reg 4096 { value [4095:0] $end
$var integer 32 | size $end
$var integer 32 } radix $end
$upscope $end

$scope function uvm_get_array_index_int $end
$var integer 32 ~ uvm_get_array_index_int $end
$var reg 1 !! is_wildcard $end
$var integer 32 "! i $end
$upscope $end

$scope function uvm_get_array_index_string $end
$var reg 1 #! is_wildcard $end
$var integer 32 $! i $end
$upscope $end

$scope function uvm_is_array $end
$var reg 1 %! uvm_is_array $end
$upscope $end

$scope function uvm_has_wildcard $end
$upscope $end

$scope task run_test $end
$upscope $end

$scope function global_stop_request $end
$upscope $end

$scope function set_global_timeout $end
$var time 64 &! timeout $end
$var reg 1 '! overridable $end
$upscope $end

$scope function set_global_stop_timeout $end
$var time 64 (! timeout $end
$upscope $end

$scope function uvm_report_enabled $end
$var reg 1 )! uvm_report_enabled $end
$var integer 32 *! verbosity $end
$var reg 2 +! severity [1:0] $end
$upscope $end

$scope function uvm_report $end
$var reg 2 ,! severity [1:0] $end
$var integer 32 -! verbosity $end
$var integer 32 .! line $end
$upscope $end

$scope function uvm_report_info $end
$var integer 32 /! verbosity $end
$var integer 32 0! line $end
$upscope $end

$scope function uvm_report_warning $end
$var integer 32 1! verbosity $end
$var integer 32 2! line $end
$upscope $end

$scope function uvm_report_error $end
$var integer 32 3! verbosity $end
$var integer 32 4! line $end
$upscope $end

$scope function uvm_report_fatal $end
$var integer 32 5! verbosity $end
$var integer 32 6! line $end
$upscope $end

$scope function uvm_string_to_severity $end
$var reg 1 7! uvm_string_to_severity $end
$var reg 2 8! sev [1:0] $end
$upscope $end

$scope function uvm_string_to_action $end
$upscope $end

$scope function set_config_int $end
$var reg 4096 9! value [4095:0] $end
$upscope $end

$scope function set_config_object $end
$var reg 1 :! clone $end
$upscope $end

$scope function set_config_string $end
$upscope $end

$scope function uvm_is_match $end
$var reg 1 ;! uvm_is_match $end
$upscope $end

$scope function uvm_string_to_bits $end
$var reg 115200 <! uvm_string_to_bits [115199:0] $end
$upscope $end

$scope function uvm_bits_to_string $end
$var reg 115200 =! str [115199:0] $end
$upscope $end

$scope task uvm_wait_for_nba_region $end
$var integer 32 >! nba $end
$var integer 32 ?! next_nba $end
$upscope $end

$scope function uvm_split_string $end
$upscope $end

$scope function uvm_hdl_concat2string $end
$upscope $end
$upscope $end

$scope begin i3c_slave_pkg $end
$upscope $end

$scope begin i3c_slave_driver_bfm_sv_unit $end
$upscope $end

$scope begin i3c_master_pkg $end
$upscope $end

$scope begin i3c_env_pkg $end
$upscope $end

$scope begin i3c_slave_seq_pkg $end
$upscope $end

$scope begin i3c_master_seq_pkg $end
$upscope $end

$scope begin i3c_virtual_seq_pkg $end
$upscope $end

$scope begin i3c_test_pkg $end
$upscope $end

$scope begin std $end
$upscope $end

$scope begin i3c_master_driver_bfm_sv_unit $end
$upscope $end

$scope begin i3c_master_monitor_bfm_sv_unit $end
$upscope $end

$scope begin questa_uvm_pkg $end
$upscope $end
$enddefinitions $end
#0
$dumpvars
0!
1"
0#!
0%!
07!
b0 8!
bx <!
bx =!
bx b
bx d
bx e
bx h
bx k
1]
0s
b1110001 t
b10000011010101100010110101001110 u
b1 {
0!!
0'!
0)!
b0 +!
b0 ,!
bx 9!
0:!
0;!
b0 %
b1 &
b1 '
b1 (
b1000 )
b111 *
b1000 +
b10000000000 ,
b10000000 -
b1101000 .
b1101100 /
b1111100 0
b1001100 1
b1 2
b0 3
b1 4
b1 5
b10000000000 6
b1000000000000 7
b1111000000000000000000000000 8
b10001 9
b10101010101 :
b101010101 ;
b101010101 <
b0 =
b1 >
b10 ?
b100 @
b1000 A
b10000 B
b100000 C
b1000000 D
b10000000 E
b100000000 F
b1000000000 G
b10000000000000 H
b100000000000000 I
b1000000000000000 J
b10000000000000000 K
b100000000000000000 L
b100000000000000001 M
b100000000000000010 N
b100000000000000011 O
b100000000000000100 P
b100000000000000101 Q
b100000000000000110 R
b100000000000000110 S
b100000000000000111 T
b100000000000001000 U
b100000000000001000 V
b100110000010001110110110110 W
b1 X
b1111000 Y
b1111000 Z
b1110111111 [
b11100000111111111 \
b0 n
b101110 w
b0 x
b100101 y
b11111111111111111111111111111111 z
b0 $!
b0 `
b0 a
b0 c
b0 g
b0 i
b0 j
b1 l
b0 m
b1101001011000001111100000011110 ^
b101110 o
b111 p
b11011001100111010000110011010 q
b1101001011000001111100000011110 r
b10011000100001000001111000100100 v
b100000 |
b10000000000000000000000000 }
b0 ~
b0 "!
b111110100 *!
b0 -!
b0 .!
b0 /!
b110010 0!
b0 1!
b0 2!
b0 3!
b0 4!
b0 5!
b0 6!
b100011 >!
b100011 ?!
b11111111111111111111111111111111 _
bx f
bx &!
bx (!
x#
x$
$end
#10
1!
#20
0!
#30
1!
0"
b100101100 *!
1)!
b100101100 /!
b110111 0!
b110110 0!
#40
0!
#50
1!
#60
0!
#70
1!
1"
b111001 0!
b111000 0!
#80
0!
#90
1!
b1001011 0!
b1001010 0!
1$
1#
#100
0!
#110
1!
b1011001 0!
b100100 ?!
b1010111 0!
b100100 >!
b0 z
b10 y
b1 y
b0 y
b1101110 {
b1000000 |
b1001000000000000000000000000 }
b1101 y
b1100 y
b1011 y
b1010 y
b1001 y
b1000 y
b111 y
b110 y
b101 y
b100 y
b11 y
b11111111111111111111111111111111 z
b10 {
b100000 |
b10000000000000000000000000 }
b0 z
b1000 y
b111 y
b110 y
b101 y
b100 y
b11 y
b11111111111111111111111111111111 z
b0 z
b11001 y
b11000 y
b10111 y
b10110 y
b10101 y
b10100 y
b10011 y
b10010 y
b10001 y
b10000 y
b1111 y
b1110 y
b1101 y
b1100 y
b1011 y
b1010 y
b1001 y
b1000 y
b111 y
b110 y
b101 y
b100 y
b11 y
b11111111111111111111111111111111 z
b0 z
b11110 y
b11101 y
b11100 y
b11011 y
b11010 y
b11001 y
b11000 y
b10111 y
b10110 y
b10101 y
b10100 y
b10011 y
b10010 y
b10001 y
b10000 y
b1111 y
b1110 y
b1101 y
b1100 y
b1011 y
b1010 y
b1001 y
b1000 y
b111 y
b110 y
b101 y
b100 y
b11 y
b11111111111111111111111111111111 z
b0 z
b1100 y
b1011 y
b1010 y
b1001 y
b1000 y
b111 y
b110 y
b101 y
b100 y
b11 y
b11111111111111111111111111111111 z
b1101000 {
b111 |
b111000000000000000000000000 }
b0 z
b10000 y
b1111 y
b1110 y
b1101 y
b1100 y
b1011 y
b1010 y
b1001 y
b1000 y
b111 y
b110 y
b101 y
b100 y
b11 y
b11111111111111111111111111111111 z
b0 z
b1101 y
b1100 y
b1011 y
b1010 y
b1001 y
b1000 y
b111 y
b110 y
b101 y
b100 y
b11 y
b11111111111111111111111111111111 z
b10 {
b1 |
b0 {
b0 z
b111 y
b110 y
b101 y
b100 y
b11 y
b11111111111111111111111111111111 z
b100100 {
b1000 |
b0 z
b1101 y
b1100 y
b1011 y
b1010 y
b1001 y
b1000 y
b111 y
b110 y
b101 y
b100 y
b11 y
b11111111111111111111111111111111 z
b10000001 {
b0 z
b1101 y
b1100 y
b1011 y
b1010 y
b1001 y
b1000 y
b111 y
b110 y
b101 y
b100 y
b11 y
b11111111111111111111111111111111 z
b0 z
b10 y
b1 y
b0 y
b1101110 {
b1000000 |
b1001000000000000000000000000 }
b1101 y
b1100 y
b1011 y
b1010 y
b1001 y
b1000 y
b111 y
b110 y
b101 y
b100 y
b11 y
b11111111111111111111111111111111 z
b10 {
b100000 |
b10000000000000000000000000 }
b0 z
b1000 y
b111 y
b110 y
b101 y
b100 y
b11 y
b11111111111111111111111111111111 z
b0 z
b11001 y
b11000 y
b10111 y
b10110 y
b10101 y
b10100 y
b10011 y
b10010 y
b10001 y
b10000 y
b1111 y
b1110 y
b1101 y
b1100 y
b1011 y
b1010 y
b1001 y
b1000 y
b111 y
b110 y
b101 y
b100 y
b11 y
b11111111111111111111111111111111 z
b0 z
b11110 y
b11101 y
b11100 y
b11011 y
b11010 y
b11001 y
b11000 y
b10111 y
b10110 y
b10101 y
b10100 y
b10011 y
b10010 y
b10001 y
b10000 y
b1111 y
b1110 y
b1101 y
b1100 y
b1011 y
b1010 y
b1001 y
b1000 y
b111 y
b110 y
b101 y
b100 y
b11 y
b11111111111111111111111111111111 z
b0 z
b1100 y
b1011 y
b1010 y
b1001 y
b1000 y
b111 y
b110 y
b101 y
b100 y
b11 y
b11111111111111111111111111111111 z
b1101000 {
b111 |
b111000000000000000000000000 }
b0 z
b10000 y
b1111 y
b1110 y
b1101 y
b1100 y
b1011 y
b1010 y
b1001 y
b1000 y
b111 y
b110 y
b101 y
b100 y
b11 y
b11111111111111111111111111111111 z
b0 z
b1101 y
b1100 y
b1011 y
b1010 y
b1001 y
b1000 y
b111 y
b110 y
b101 y
b100 y
b11 y
b11111111111111111111111111111111 z
b10 {
b1 |
b0 {
b0 z
b111 y
b110 y
b101 y
b100 y
b11 y
b11111111111111111111111111111111 z
b100100 {
b1000 |
b0 z
b1101 y
b1100 y
b1011 y
b1010 y
b1001 y
b1000 y
b111 y
b110 y
b101 y
b100 y
b11 y
b11111111111111111111111111111111 z
b10000001 {
b0 z
b1101 y
b1100 y
b1011 y
b1010 y
b1001 y
b1000 y
b111 y
b110 y
b101 y
b100 y
b11 y
b11111111111111111111111111111111 z
b1100100 *!
b1100100 /!
b110010 0!
b11001000 *!
b11001000 /!
b1111101 0!
#120
0!
#130
1!
#140
0!
#150
1!
b10110111 0!
b0 *!
b0 /!
b10111110 0!
0$
#160
0!
b100101100 *!
b100101100 /!
b1101010 0!
#170
1!
0#
#180
0!
#190
1!
1#
#200
0!
b10000000 0!
#210
1!
0#
#220
0!
#230
1!
1#
#240
0!
#250
1!
0#
#260
0!
#270
1!
1#
#280
0!
#290
1!
1$
0#
#300
0!
#310
1!
1#
#320
0!
#330
1!
0$
0#
#340
0!
#350
1!
1#
#360
0!
#370
1!
1$
0#
#380
0!
#390
1!
1#
#400
0!
#410
1!
0#
#420
0!
#430
1!
1#
#440
0!
#450
1!
0$
0#
#460
0!
#470
1!
b0 *!
b0 /!
b10001001 0!
1#
#480
0!
b100101100 *!
b100101100 /!
b10000000 0!
b0 *!
b0 /!
b10110011 0!
b10110100 0!
#490
1!
1$
0#
#500
0!
b100101100 *!
b100101100 /!
b10011001 0!
0$
#510
1!
#520
0!
#530
1!
b11001000 *!
b11001000 /!
b11011010 0!
b100101100 *!
b100101100 /!
b10001111 0!
b0 *!
b0 /!
b10111110 0!
1#
#540
0!
b100101100 *!
b100101100 /!
b10000000 0!
b0 *!
b0 /!
b11100100 0!
#550
1!
0#
#560
0!
#570
1!
1#
#580
0!
b100101100 *!
b100101100 /!
b10000000 0!
#590
1!
0#
#600
0!
#610
1!
1#
#620
0!
#630
1!
1$
0#
#640
0!
#650
1!
1#
#660
0!
#670
1!
0$
0#
#680
0!
#690
1!
1#
#700
0!
#710
1!
0#
#720
0!
#730
1!
1#
#740
0!
#750
1!
1$
0#
#760
0!
#770
1!
1#
#780
0!
#790
1!
0$
0#
#800
0!
#810
1!
1#
#820
0!
#830
1!
0#
#840
0!
#850
1!
b0 *!
b0 /!
b10010101 0!
b10111110 0!
1#
#860
0!
b100101100 *!
b100101100 /!
b10000000 0!
b0 *!
b0 /!
b100000001 0!
#870
1!
1$
0#
#880
0!
b100101100 *!
b100101100 /!
b10011001 0!
x$
#890
1!
1#
#900
0!
#910
1!
0$
0#
#920
0!
#930
1!
1#
#940
0!
b10000000 0!
#950
1!
0#
#960
0!
#970
1!
1#
#980
0!
#990
1!
0#
#1000
0!
#1010
1!
1#
#1020
0!
#1030
1!
0#
#1040
0!
#1050
1!
1#
#1060
0!
#1070
1!
0#
#1080
0!
#1090
1!
1#
#1100
0!
#1110
1!
0#
#1120
0!
#1130
1!
1#
#1140
0!
#1150
1!
x$
0#
#1160
0!
#1170
1!
b0 *!
b0 /!
b10010101 0!
1#
#1180
0!
#1190
1!
0$
0#
#1200
0!
#1210
1!
#1220
0!
#1230
1!
b11001000 *!
b11001000 /!
b11011010 0!
1#
#1240
0!
#1250
1!
#1260
0!
#1270
1!
#1280
0!
#1290
1!
b10100000 0!
b1100100 *!
b1100100 /!
b1101010 0!
b1101111 0!
b1110110 0!
b0 z
b1100 y
b1011 y
b1010 y
b1001 y
b1000 y
b111 y
b110 y
b101 y
b100 y
b11 y
b10 y
b1 y
b0 y
b1101000 {
b111 |
b11010 y
b11001 y
b11000 y
b10111 y
b10110 y
b10101 y
b10100 y
b10011 y
b10010 y
b10001 y
b10000 y
b1111 y
b1110 y
b1101 y
b11111111111111111111111111111111 z
b0 z
b10111 y
b10110 y
b10101 y
b10100 y
b10011 y
b10010 y
b10001 y
b10000 y
b1111 y
b1110 y
b1101 y
b11111111111111111111111111111111 z
b0 {
b1 |
b0 z
b10001 y
b10000 y
b1111 y
b1110 y
b1101 y
b11111111111111111111111111111111 z
#1300
0!
